{
  "Comment.nvim": { "branch": "master", "commit": "0236521ea582747b58869cb72f70ccfa967d2e89" },
  "LuaSnip": { "branch": "master", "commit": "2463d687fe704b76eb0aa3bb34e95f69a5bb0362" },
  "cmp-buffer": { "branch": "main", "commit": "3022dbc9166796b644a841a02de8dd1cc1d311fa" },
  "cmp-nvim-lsp": { "branch": "main", "commit": "5af77f54de1b16c34b23cba810150689a3a90312" },
  "cmp-nvim-lua": { "branch": "main", "commit": "f12408bdb54c39c23e67cab726264c10db33ada8" },
  "cmp-path": { "branch": "main", "commit": "91ff86cd9c29299a64f968ebb45846c485725f23" },
  "cmp_luasnip": { "branch": "master", "commit": "05a9ab28b53f71d1aece421ef32fee2cb857a843" },
  "codeium.nvim": { "branch": "main", "commit": "f871000e91faa9ed334da2bfa4eadbf54d0e1047" },
  "copilot-cmp": { "branch": "master", "commit": "72fbaa03695779f8349be3ac54fa8bd77eed3ee3" },
  "copilot.lua": { "branch": "master", "commit": "858bbfa6fa81c88fb1f64107d7981f1658619e0a" },
  "fidget.nvim": { "branch": "main", "commit": "0ba1e16d07627532b6cae915cc992ecac249fb97" },
  "friendly-snippets": { "branch": "main", "commit": "53d3df271d031c405255e99410628c26a8f0d2b0" },
  "lazy.nvim": { "branch": "main", "commit": "96584866b9c5e998cbae300594d0ccfd0c464627" },
  "leap.nvim": { "branch": "main", "commit": "47262a9beadd6945f51b0a4fc2d005aaa2095f04" },
  "mason-lspconfig.nvim": { "branch": "main", "commit": "56e435e09f8729af2d41973e81a0db440f8fe9c9" },
  "mason.nvim": { "branch": "main", "commit": "41e75af1f578e55ba050c863587cffde3556ffa6" },
  "neodev.nvim": { "branch": "main", "commit": "8526ce7de23e04735827a4e3f78ff634880181c5" },
  "none-ls.nvim": { "branch": "main", "commit": "e7382de51b4cf629e56f1fa18192e716e5ba8145" },
  "nvim-cmp": { "branch": "main", "commit": "538e37ba87284942c1d76ed38dd497e54e65b891" },
  "nvim-lspconfig": { "branch": "master", "commit": "9099871a7c7e1c16122e00d70208a2cd02078d80" },
  "nvim-neoclip.lua": { "branch": "main", "commit": "798cd0592a81c185465db3a091a0ff8a21af60fd" },
  "nvim-treesitter": { "branch": "master", "commit": "7a2c6211d6f550988fccd8800de8426d5e480a2d" },
  "nvim-treesitter-textobjects": { "branch": "master", "commit": "0e2d5bd4cbe75849a013901555d436a48c6680cb" },
  "nvim-web-devicons": { "branch": "master", "commit": "43aa2ddf476012a2155f5f969ee55ab17174da7a" },
  "oil.nvim": { "branch": "master", "commit": "523b61430cb7365f8f86609c2ea60e48456bac63" },
  "plenary.nvim": { "branch": "master", "commit": "55d9fe89e33efd26f532ef20223e5f9430c8b0c0" },
  "telescope-fzf-native.nvim": { "branch": "main", "commit": "6c921ca12321edaa773e324ef64ea301a1d0da62" },
  "telescope.nvim": { "branch": "0.1.x", "commit": "d90956833d7c27e73c621a61f20b29fdb7122709" },
  "toggleterm.nvim": { "branch": "main", "commit": "e3805fed94d487b81e9c21548535cc820f62f840" },
  "tree-sitter-markdown": { "branch": "split_parser", "commit": "f9820b2db958228f9be339b67d2de874d065866e" },
  "vim-illuminate": { "branch": "master", "commit": "3bd2ab64b5d63b29e05691e624927e5ebbf0fb86" }
}